{
  "data": {
    "page": 0,
    "size": 10,
    "totalPage": 2,
    "totalElements": 15,
    "items": [
      {
        "name": "test-1"
      },
      {
        "name": "test-2"
      },
      {
        "name": "test-3"
      },
      {
        "name": "test-4"
      },
      {
        "name": "test-5"
      },
      {
        "name": "test-6"
      },
      {
        "name": "test-7"
      },
      {
        "name": "test-8"
      },
      {
        "name": "test-9"
      },
      {
        "name": "test-10"
      },
      {
        "name": "test-11"
      },
      {
        "name": "test-12"
      },
      {
        "name": "test-13"
      },
      {
        "name": "test-14"
      }
    ]
  }
}